{
  "request": {
    "endpoint": "/v2/catalog/search?query=DD1391-100",
    "params": {
      "query": "DD1391-100"
    },
    "timestamp": "2025-12-09T14:33:28.141Z"
  },
  "response": {
    "count": 13,
    "pageNumber": 1,
    "pageSize": 10,
    "hasNextPage": true,
    "products": [
      {
        "productId": "5e6a1e57-1c7d-435a-82bd-5666a13560fe",
        "brand": "Nike",
        "productType": "sneakers",
        "styleId": "DD1391-100",
        "urlKey": "nike-dunk-low-retro-white-black-2021",
        "title": "Nike Dunk Low Retro White Black Panda",
        "productAttributes": {
          "color": null,
          "colorway": "White/Black",
          "gender": "men",
          "releaseDate": "2021-03-10",
          "retailPrice": 115,
          "season": null
        }
      },
      {
        "productId": "e55a750d-344b-4522-a76f-8bb5972a19cf",
        "brand": "Nike",
        "productType": "sneakers",
        "styleId": "DD1390-100",
        "urlKey": "nike-dunk-low-medium-curry",
        "title": "Nike Dunk Low Medium Curry",
        "productAttributes": {
          "color": null,
          "colorway": "Sail/Medium Curry-Fossil",
          "gender": "men",
          "releaseDate": "2021-03-29",
          "retailPrice": 125,
          "season": null
        }
      },
      {
        "productId": "4ec6b400-7e3a-45ed-b397-6584f625340a",
        "brand": "Nike",
        "productType": "sneakers",
        "styleId": "DD1391-101",
        "urlKey": "nike-dunk-low-varsity-green",
        "title": "Nike Dunk Low Michigan State",
        "productAttributes": {
          "color": null,
          "colorway": "White/Team Green/White",
          "gender": "men",
          "releaseDate": "2024-05-10",
          "retailPrice": 115,
          "season": null
        }
      },
      {
        "productId": "04e722ab-9596-47df-a8f5-ef7c17347665",
        "brand": "Nike",
        "productType": "sneakers",
        "styleId": "DD1399-100",
        "urlKey": "nike-dunk-high-retro-white-vast-grey-2021",
        "title": "Nike Dunk High Retro White Vast Grey",
        "productAttributes": {
          "color": null,
          "colorway": "White/Vast Grey",
          "gender": "men",
          "releaseDate": "2021-02-25",
          "retailPrice": 120,
          "season": null
        }
      },
      {
        "productId": "7d37091c-f214-491a-a50c-d289f0f7e255",
        "brand": "Nike",
        "productType": "sneakers",
        "styleId": "DD1399-105",
        "urlKey": "nike-dunk-high-black-white-total-orange-2021",
        "title": "Nike Dunk High Panda Black White (2021/2024)",
        "productAttributes": {
          "color": null,
          "colorway": "White/Black-Total Orange",
          "gender": "men",
          "releaseDate": "2022-01-27",
          "retailPrice": 110,
          "season": null
        }
      },
      {
        "productId": "e358ceff-9838-4700-b293-171b0bccab20",
        "brand": "Nike",
        "productType": "sneakers",
        "styleId": "DD1399-106",
        "urlKey": "nike-dunk-high-university-red",
        "title": "Nike Dunk High Championship White Red",
        "productAttributes": {
          "color": null,
          "colorway": "White/University Red",
          "gender": "men",
          "releaseDate": "2022-05-17",
          "retailPrice": 115,
          "season": null
        }
      },
      {
        "productId": "11416f4b-42ad-4b28-b495-e92f08133d48",
        "brand": "Nike",
        "productType": "sneakers",
        "styleId": "DD1399-107",
        "urlKey": "nike-dunk-high-cargo-khaki",
        "title": "Nike Dunk High Retro Cargo Khaki (2021)",
        "productAttributes": {
          "color": null,
          "colorway": "White/Cargo Khaki",
          "gender": "men",
          "releaseDate": "2022-04-01",
          "retailPrice": 110,
          "season": null
        }
      },
      {
        "productId": "bf9de8ac-4056-4134-a89a-3b59f8421522",
        "brand": "Nike",
        "productType": "sneakers",
        "styleId": "DD1399-101",
        "urlKey": "nike-dunk-high-syracuse-2021",
        "title": "Nike Dunk High Syracuse (2021)",
        "productAttributes": {
          "color": null,
          "colorway": "White/Orange Blaze",
          "gender": "men",
          "releaseDate": "2021-03-10",
          "retailPrice": 110,
          "season": null
        }
      },
      {
        "productId": "333ea741-ee8b-4d4c-b278-48b673d747e8",
        "brand": "Nike",
        "productType": "sneakers",
        "styleId": "DD1399-102",
        "urlKey": "nike-dunk-high-game-royal",
        "title": "Nike Dunk High Game Royal",
        "productAttributes": {
          "color": null,
          "colorway": "White/Game Royal-Total Orange",
          "gender": "men",
          "releaseDate": "2021-06-29",
          "retailPrice": 110,
          "season": null
        }
      },
      {
        "productId": "1df15ac7-494c-410e-85c3-4f44a22e8c6b",
        "brand": "Nike",
        "productType": "sneakers",
        "styleId": "DD1399-104",
        "urlKey": "nike-dunk-high-midnight-navy",
        "title": "Nike Dunk High Championship Navy",
        "productAttributes": {
          "color": null,
          "colorway": "White/Midnight Navy",
          "gender": "men",
          "releaseDate": "2021-10-08",
          "retailPrice": 110,
          "season": null
        }
      }
    ]
  }
}